{
    "hparams": {
    	"model/smoothing_kernel": [
    		4,
    		8,
    		16
    	],
        "model/style_net.dropout": [
            0,
            0.3
        ],
        "training/style_net.lambda_reconstruction": [
            0.1,
            1.0,
            10.0
        ],
        "training/style_net.reconstruction_variation": [
            0.1,
            1.0
        ]
    },
    "preconditions": {}
}
