{
    "new": true,
    "type": "paint_gan",
    "name": "model",
    "project": "painting_grid",
    "paint_net": {
        "type": "unet_cdn",
        "upsampling": null,
        "num_styles": 15,
        "filters": [
            32,
            32,
            32,
            3
        ],
        "kernels": [
            3,
            3,
            3,
            3
        ]
    },
    "seed_sigma": 0.5,
    "style_feature_layers": [
        2,
        5,
        9,
        13
    ],
    "style_feature_weights": [
        0.25,
        0.25,
        0.25,
        0.25
    ]
}
