{
    "type": "residual_encoder_decoder",
    "levels": 3,
    "upsampling": "transposed_convolution / nearest / bilinear",
    "dropout": 0.25,
    "l2_reg": 0.001,
    "filters": [
        16,
        32,
        64,
        64,
        64,
        32,
        16,
        3
    ],
    "kernels": [
        7,
        5,
        3,
        3,
        3,
        3,
        5,
        7
    ]
}
