{
    "type": "unet_cin",
    "upsampling": "nearest",
    "filters": [
        32,
        32,
        32,
        32,
        3
    ],
    "kernels": [
        3,
        3,
        3,
        3,
        3
    ],
    "num_styles": 4
}
