{
    "name": "water_lilies",
    "model_type": "paint_gan",
    "component_name": "paint_net",
    "component": {
        "type": "unet_cdn",
        "upsampling": "nearest",
        "num_styles": 3,
        "filters": [
            32,
            32,
            32,
            32,
            3
        ],
        "kernels": [
            3,
            3,
            3,
            3,
            3
        ]
    }
}
