{
    "content_images_path": "data/original/test_data/test_kaszubskie",
    "style_images_path": "data/original/test_data/test_style_2",
    "fixed_size": [128, 128],
    "fixed_mode": "crop",
    "splits": [
        0.4,
        0.4,
        0.2
    ]
}
