{
    "dataset_x_path": "data/original/test_data/test_kaszubskie",
    "dataset_y_path": "data/original/test_data/test_wycinanki",
    "fixed_size": [
        75,
        128
    ],
    "fixed_mode": "pad",
    "min_size": 100,
    "max_size": 150,
    "splits": [
        0.6,
        0.3,
        0.1
    ]
}
