{
    "style_images_path": "data/original/test_data/test_style_1",
    "noise": {
        "type": "perlin",
        "scale": 100,
        "octaves": 4,
        "persistence": 0.75,
        "lacunarity": 2.5,
        "repeat_range": 512,
        "base_range": 256,
        "sampling_channels": 4,
        "num_parallel_processes": 2
    },
    "fixed_size": [75, 100],
    "fixed_mode": "crop",
    "training_samples_per_epoch": 16,
    "validation_samples_per_epoch": 4
}
