{
    "content_images_path": "data/original/test_data/test_wycinanki",
    "style_images_path": "data/original/test_data/test_style_1",
    "fixed_size": [128, 128],
    "fixed_mode": "crop",
    "splits": [
        0.5,
        0.5,
        0
    ]
}
