{
    "new": true,
    "type": "paint_gan",
    "name": "paint_gan_test_new",
    "project": "test_project",
    "paint_net": {
        "type": "unet_cdn",
        "upsampling": "nearest",
        "num_styles": 15,
        "filters": [
            4,
            4,
            3
        ],
        "kernels": [
            3,
            3,
            3
        ]
    },
    "seed_sigma": 0.5,
    "style_feature_layers": [
        9,
        13
    ],
    "style_feature_weights": [
        0.5,
        0.5
    ]
}
