{
    "epochs": 2,
    "summary": {
        "graph": false,
        "hparams": false,
        "image_samples": 4,
        "image_samples_frequency": 15
    },
    "checkpoint_copy": {
        "enabled": false,
        "starting_epoch": 5,
        "frequency": 3
    },
    "paint_net": {
        "optimizer": "adam",
        "initial_learning_rate": 1e-3,
        "end_learning_rate": 1e-4,
        "decay_polynomial_power": 1.0,
        "alpha_ms_ssim": 0.5,
        "lambda_style": 1e-6,
        "lambda_reconstruction": 1.0
    }
}
