{
    "dataset_x_path": "data/original/decorative/gzhel",
    "dataset_y_path": "data/original/decorative/neglyubka",
    "fixed_size": [150, 150],
    "fixed_mode": "crop",
    "min_size": 100,
    "max_size": 150,
    "splits": [
        0.8,
        0.2,
        0
    ]
}
