{
    "content_images_path": "data/original/standard_content_images",
    "style_images_path": "data/original/standard_style_single_image",
    "fixed_size": [256, 256],
    "fixed_mode": "crop",
    "splits": [
        0.8,
        0.2,
        0
    ]
}
