{
    "painting_set_path": "data/original/standard_painting_set",
    "noise": {
        "type": "perlin",
        "scale": 100,
        "octaves": 6,
        "persistence": 0.25,
        "lacunarity": 2.0,
        "repeat_range": 1024,
        "base_range": 256,
        "num_parallel_processes": 3
    },
    "fixed_size": [200, 320],
    "fixed_mode": "crop",
    "training_samples_per_epoch": 15
}
