{
    "new": true,
    "type": "artistic_cin_gm",
    "name": "model_artistic_cin_gm",
    "project": "neural_artistic_style",
    "style_net": {
        "type": "unet_cin",
        "upsampling": "nearest",
        "filters": [
            16,
            32,
            64,
            3
        ],
        "kernels": [
            3,
            3,
            3,
            3
        ]
    },
    "content_feature_layers": [
        13
    ],
    "content_feature_weights": [
        1.0
    ],
    "style_feature_layers": [
        2,
        5,
        9,
        13
    ],
    "style_feature_weights": [
        0.25,
        0.25,
        0.25,
        0.25
    ]
}
