{
    "new": true,
    "type": "cycle_gan",
    "name": "model_cycle_gan",
    "project": "cycle_style_transfer",
    "objective": "wasserstein_distance",
    "generator": {
        "type": "unet_in",
        "upsampling": "nearest",
        "filters": [
            16,
            16,
            32,
            32,
            3
        ],
        "kernels": [
            3,
            3,
            3,
            3,
            3
        ]
    },
    "discriminator": {
        "type": "convolutional_sn",
        "l2_reg": 0.001,
        "filters": [
            32,
            32,
            32,
            1
        ],
        "kernels": [
            5,
            5,
            3,
            3
        ]
    }
}
